{
  "1": [
    " Muorin jouluiset ompeleet <3",
    " 2022-12-12  18:00 ",
    "sali 1",
    [
      "3,1",
      "9,8"
    ]
  ],
  "2": [
    " Muorin jouluiset ompeleet <3",
    " 2022-12-12  20:00 ",
    "sali 2",
    []
  ],
  "3": [
    " Muorin jouluiset ompeleet <3",
    " 2022-12-12  22:00 ",
    "sali 3",
    []
  ],
  "4": [
    " Elinin ensimm\u00c3\u00a4inen joulu!  ",
    " 2022-12-12  11:00 ",
    "sali 1",
    []
  ],
  "5": [
    " Elinin ensimm\u00c3\u00a4inen joulu!  ",
    " 2022-12-12  20:15 ",
    "sali 2",
    []
  ],
  "6": [
    " Elinin ensimm\u00c3\u00a4inen joulu!  ",
    " 2022-12-12  23:30 ",
    "sali 3",
    []
  ],
  "7": [
    " Tonttujen t\u00c3\u00a4htitorttupaja  ",
    " 2022-12-12  15:30 ",
    "sali 1",
    []
  ],
  "8": [
    " Tonttujen t\u00c3\u00a4htitorttupaja  ",
    " 2022-12-12  20:00 ",
    "sali 2",
    []
  ],
  "9": [
    " Tonttujen t\u00c3\u00a4htitorttupaja  ",
    " 2022-12-12  22:22 ",
    "sali 3",
    []
  ]
}